%YAML 1.1
%TAG !u! tag:unity3d.com,2011:
--- !u!114 &11400000
MonoBehaviour:
  m_ObjectHideFlags: 0
  m_PrefabParentObject: {fileID: 0}
  m_PrefabInternal: {fileID: 0}
  m_GameObject: {fileID: 0}
  m_Enabled: 1
  m_EditorHideFlags: 0
  m_Script: {fileID: 11500000, guid: 3dbbbbbd682fac7498c982274e6aac22, type: 3}
  m_Name: IceSpear
  m_EditorClassIdentifier: 
  name: IceSpear
  icon: {fileID: 21300000, guid: b692cd971b3d12e4a849330a7913aca4, type: 3}
  isDefaultItem: 0
  isTankWeapon: 0
  itemPrefab: {fileID: 1465743298234232, guid: 87634c799ed32854fb3e78a2017bd27c, type: 2}
  itemPickupObject: {fileID: 1410226459814958, guid: 5ad2336d4384a3d4197137c314e911b1,
    type: 2}
  dictionaryString: IceSpear
  range: 16
  damage: 30
  fireRate: 1.5
  cost: 800
